src/Processing Element.vcd
$date
	Tue May 20 12:44:49 2025
$end
$version
	Icarus Verilog
$end
$timescale
	1s
$end
$scope module Single_Cycle_Top_Tb $end
$var reg 1 ! clk $end
$var reg 1 " rst $end
$scope module PE $end
$var wire 1 ! clk $end
$var wire 1 " rst $end
$var wire 1 # Zero $end
$var wire 1 $ UseImm $end
$var wire 256 % SrcB [255:0] $end
$var wire 1 & ResultSrc $end
$var wire 256 ' Result [255:0] $end
$var wire 1 ( RegWrite $end
$var wire 256 ) ReadData [255:0] $end
$var wire 32 * RD_Instr [31:0] $end
$var wire 256 + RD2_Top [255:0] $end
$var wire 256 , RD1_Top [255:0] $end
$var wire 32 - PC_Top [31:0] $end
$var wire 32 . PC_Target [31:0] $end
$var wire 32 / PC_Next [31:0] $end
$var wire 1 0 PCSrc $end
$var wire 32 1 PCPlus4 [31:0] $end
$var wire 1 2 MemWrite $end
$var wire 32 3 Imm_Ext_Top [31:0] $end
$var wire 2 4 ImmSrc [1:0] $end
$var wire 1 5 ALUSrc $end
$var wire 256 6 ALUResult [255:0] $end
$var wire 3 7 ALUControl_Top [2:0] $end
$scope module ALU $end
$var wire 1 # Zero $end
$var wire 1 $ UseImm $end
$var wire 256 8 Result [255:0] $end
$var wire 32 9 Cout [31:0] $end
$var wire 256 : B [255:0] $end
$var wire 3 ; ALUControl [2:0] $end
$var wire 256 < A [255:0] $end
$var parameter 32 = ELEM_WIDTH $end
$var parameter 32 > NUM_REGS $end
$var parameter 32 ? REG_WIDTH $end
$scope begin ALU_Operations[0] $end
$var parameter 2 @ i $end
$upscope $end
$scope begin ALU_Operations[1] $end
$var parameter 2 A i $end
$upscope $end
$scope begin ALU_Operations[2] $end
$var parameter 3 B i $end
$upscope $end
$scope begin ALU_Operations[3] $end
$var parameter 3 C i $end
$upscope $end
$scope begin ALU_Operations[4] $end
$var parameter 4 D i $end
$upscope $end
$scope begin ALU_Operations[5] $end
$var parameter 4 E i $end
$upscope $end
$scope begin ALU_Operations[6] $end
$var parameter 4 F i $end
$upscope $end
$scope begin ALU_Operations[7] $end
$var parameter 4 G i $end
$upscope $end
$scope begin ALU_Operations[8] $end
$var parameter 5 H i $end
$upscope $end
$scope begin ALU_Operations[9] $end
$var parameter 5 I i $end
$upscope $end
$scope begin ALU_Operations[10] $end
$var parameter 5 J i $end
$upscope $end
$scope begin ALU_Operations[11] $end
$var parameter 5 K i $end
$upscope $end
$scope begin ALU_Operations[12] $end
$var parameter 5 L i $end
$upscope $end
$scope begin ALU_Operations[13] $end
$var parameter 5 M i $end
$upscope $end
$scope begin ALU_Operations[14] $end
$var parameter 5 N i $end
$upscope $end
$scope begin ALU_Operations[15] $end
$var parameter 5 O i $end
$upscope $end
$scope begin ALU_Operations[16] $end
$var parameter 6 P i $end
$upscope $end
$scope begin ALU_Operations[17] $end
$var parameter 6 Q i $end
$upscope $end
$scope begin ALU_Operations[18] $end
$var parameter 6 R i $end
$upscope $end
$scope begin ALU_Operations[19] $end
$var parameter 6 S i $end
$upscope $end
$scope begin ALU_Operations[20] $end
$var parameter 6 T i $end
$upscope $end
$scope begin ALU_Operations[21] $end
$var parameter 6 U i $end
$upscope $end
$scope begin ALU_Operations[22] $end
$var parameter 6 V i $end
$upscope $end
$scope begin ALU_Operations[23] $end
$var parameter 6 W i $end
$upscope $end
$scope begin ALU_Operations[24] $end
$var parameter 6 X i $end
$upscope $end
$scope begin ALU_Operations[25] $end
$var parameter 6 Y i $end
$upscope $end
$scope begin ALU_Operations[26] $end
$var parameter 6 Z i $end
$upscope $end
$scope begin ALU_Operations[27] $end
$var parameter 6 [ i $end
$upscope $end
$scope begin ALU_Operations[28] $end
$var parameter 6 \ i $end
$upscope $end
$scope begin ALU_Operations[29] $end
$var parameter 6 ] i $end
$upscope $end
$scope begin ALU_Operations[30] $end
$var parameter 6 ^ i $end
$upscope $end
$scope begin ALU_Operations[31] $end
$var parameter 6 _ i $end
$upscope $end
$scope begin genblk1[0] $end
$var parameter 2 ` i $end
$upscope $end
$scope begin genblk1[1] $end
$var parameter 2 a i $end
$upscope $end
$scope begin genblk1[2] $end
$var parameter 3 b i $end
$upscope $end
$scope begin genblk1[3] $end
$var parameter 3 c i $end
$upscope $end
$scope begin genblk1[4] $end
$var parameter 4 d i $end
$upscope $end
$scope begin genblk1[5] $end
$var parameter 4 e i $end
$upscope $end
$scope begin genblk1[6] $end
$var parameter 4 f i $end
$upscope $end
$scope begin genblk1[7] $end
$var parameter 4 g i $end
$upscope $end
$scope begin genblk1[8] $end
$var parameter 5 h i $end
$upscope $end
$scope begin genblk1[9] $end
$var parameter 5 i i $end
$upscope $end
$scope begin genblk1[10] $end
$var parameter 5 j i $end
$upscope $end
$scope begin genblk1[11] $end
$var parameter 5 k i $end
$upscope $end
$scope begin genblk1[12] $end
$var parameter 5 l i $end
$upscope $end
$scope begin genblk1[13] $end
$var parameter 5 m i $end
$upscope $end
$scope begin genblk1[14] $end
$var parameter 5 n i $end
$upscope $end
$scope begin genblk1[15] $end
$var parameter 5 o i $end
$upscope $end
$scope begin genblk1[16] $end
$var parameter 6 p i $end
$upscope $end
$scope begin genblk1[17] $end
$var parameter 6 q i $end
$upscope $end
$scope begin genblk1[18] $end
$var parameter 6 r i $end
$upscope $end
$scope begin genblk1[19] $end
$var parameter 6 s i $end
$upscope $end
$scope begin genblk1[20] $end
$var parameter 6 t i $end
$upscope $end
$scope begin genblk1[21] $end
$var parameter 6 u i $end
$upscope $end
$scope begin genblk1[22] $end
$var parameter 6 v i $end
$upscope $end
$scope begin genblk1[23] $end
$var parameter 6 w i $end
$upscope $end
$scope begin genblk1[24] $end
$var parameter 6 x i $end
$upscope $end
$scope begin genblk1[25] $end
$var parameter 6 y i $end
$upscope $end
$scope begin genblk1[26] $end
$var parameter 6 z i $end
$upscope $end
$scope begin genblk1[27] $end
$var parameter 6 { i $end
$upscope $end
$scope begin genblk1[28] $end
$var parameter 6 | i $end
$upscope $end
$scope begin genblk1[29] $end
$var parameter 6 } i $end
$upscope $end
$scope begin genblk1[30] $end
$var parameter 6 ~ i $end
$upscope $end
$scope begin genblk1[31] $end
$var parameter 6 !" i $end
$upscope $end
$scope begin genblk3[0] $end
$var parameter 2 "" i $end
$upscope $end
$scope begin genblk3[1] $end
$var parameter 2 #" i $end
$upscope $end
$scope begin genblk3[2] $end
$var parameter 3 $" i $end
$upscope $end
$scope begin genblk3[3] $end
$var parameter 3 %" i $end
$upscope $end
$scope begin genblk3[4] $end
$var parameter 4 &" i $end
$upscope $end
$scope begin genblk3[5] $end
$var parameter 4 '" i $end
$upscope $end
$scope begin genblk3[6] $end
$var parameter 4 (" i $end
$upscope $end
$scope begin genblk3[7] $end
$var parameter 4 )" i $end
$upscope $end
$scope begin genblk3[8] $end
$var parameter 5 *" i $end
$upscope $end
$scope begin genblk3[9] $end
$var parameter 5 +" i $end
$upscope $end
$scope begin genblk3[10] $end
$var parameter 5 ," i $end
$upscope $end
$scope begin genblk3[11] $end
$var parameter 5 -" i $end
$upscope $end
$scope begin genblk3[12] $end
$var parameter 5 ." i $end
$upscope $end
$scope begin genblk3[13] $end
$var parameter 5 /" i $end
$upscope $end
$scope begin genblk3[14] $end
$var parameter 5 0" i $end
$upscope $end
$scope begin genblk3[15] $end
$var parameter 5 1" i $end
$upscope $end
$scope begin genblk3[16] $end
$var parameter 6 2" i $end
$upscope $end
$scope begin genblk3[17] $end
$var parameter 6 3" i $end
$upscope $end
$scope begin genblk3[18] $end
$var parameter 6 4" i $end
$upscope $end
$scope begin genblk3[19] $end
$var parameter 6 5" i $end
$upscope $end
$scope begin genblk3[20] $end
$var parameter 6 6" i $end
$upscope $end
$scope begin genblk3[21] $end
$var parameter 6 7" i $end
$upscope $end
$scope begin genblk3[22] $end
$var parameter 6 8" i $end
$upscope $end
$scope begin genblk3[23] $end
$var parameter 6 9" i $end
$upscope $end
$scope begin genblk3[24] $end
$var parameter 6 :" i $end
$upscope $end
$scope begin genblk3[25] $end
$var parameter 6 ;" i $end
$upscope $end
$scope begin genblk3[26] $end
$var parameter 6 <" i $end
$upscope $end
$scope begin genblk3[27] $end
$var parameter 6 =" i $end
$upscope $end
$scope begin genblk3[28] $end
$var parameter 6 >" i $end
$upscope $end
$scope begin genblk3[29] $end
$var parameter 6 ?" i $end
$upscope $end
$scope begin genblk3[30] $end
$var parameter 6 @" i $end
$upscope $end
$scope begin genblk3[31] $end
$var parameter 6 A" i $end
$upscope $end
$upscope $end
$scope module Control_Unit $end
$var wire 7 B" Op [6:0] $end
$var wire 1 # Zero $end
$var wire 3 C" funct3 [2:0] $end
$var wire 7 D" funct7 [6:0] $end
$var wire 1 $ UseImm $end
$var wire 1 & ResultSrc $end
$var wire 1 ( RegWrite $end
$var wire 1 0 PCSrc $end
$var wire 1 2 MemWrite $end
$var wire 2 E" ImmSrc [1:0] $end
$var wire 1 F" Branch $end
$var wire 1 5 ALUSrc $end
$var wire 2 G" ALUOp [1:0] $end
$var wire 3 H" ALUControl [2:0] $end
$scope module ALU_Decoder $end
$var wire 3 I" funct3 [2:0] $end
$var wire 7 J" funct7 [6:0] $end
$var wire 7 K" op [6:0] $end
$var wire 2 L" ALUOp [1:0] $end
$var wire 3 M" ALUControl [2:0] $end
$upscope $end
$scope module Main_Decoder $end
$var wire 7 N" Op [6:0] $end
$var wire 1 $ UseImm $end
$var wire 1 & ResultSrc $end
$var wire 1 ( RegWrite $end
$var wire 1 2 MemWrite $end
$var wire 2 O" ImmSrc [1:0] $end
$var wire 1 F" Branch $end
$var wire 1 5 ALUSrc $end
$var wire 2 P" ALUOp [1:0] $end
$upscope $end
$upscope $end
$scope module Data_Memory $end
$var wire 256 Q" A [255:0] $end
$var wire 1 2 WE $end
$var wire 1 ! clk $end
$var wire 1 " rst $end
$var wire 256 R" WD [255:0] $end
$var wire 256 S" RD [255:0] $end
$upscope $end
$scope module Instruction_Memory $end
$var wire 1 " rst $end
$var wire 32 T" RD [31:0] $end
$var wire 32 U" A [31:0] $end
$upscope $end
$scope module Mux_DataMemory_to_Register $end
$var wire 256 V" a [255:0] $end
$var wire 256 W" b [255:0] $end
$var wire 1 & s $end
$var wire 256 X" c [255:0] $end
$var parameter 32 Y" LEN_DATA $end
$upscope $end
$scope module Mux_PC $end
$var wire 1 0 s $end
$var wire 32 Z" c [31:0] $end
$var wire 32 [" b [31:0] $end
$var wire 32 \" a [31:0] $end
$var parameter 32 ]" LEN_DATA $end
$upscope $end
$scope module Mux_Register_to_ALU $end
$var wire 256 ^" b [255:0] $end
$var wire 1 5 s $end
$var wire 256 _" c [255:0] $end
$var wire 256 `" a [255:0] $end
$var parameter 32 a" LEN_DATA $end
$upscope $end
$scope module PC $end
$var wire 32 b" PC_Next [31:0] $end
$var wire 1 ! clk $end
$var wire 1 " rst $end
$var reg 32 c" PC [31:0] $end
$upscope $end
$scope module PC_Adder $end
$var wire 32 d" a [31:0] $end
$var wire 32 e" b [31:0] $end
$var wire 32 f" c [31:0] $end
$upscope $end
$scope module PC_Branch $end
$var wire 32 g" a [31:0] $end
$var wire 32 h" c [31:0] $end
$var wire 32 i" b [31:0] $end
$upscope $end
$scope module Register_File $end
$var wire 5 j" A1 [4:0] $end
$var wire 5 k" A2 [4:0] $end
$var wire 5 l" A3 [4:0] $end
$var wire 256 m" RD1 [255:0] $end
$var wire 256 n" RD2 [255:0] $end
$var wire 256 o" WD3 [255:0] $end
$var wire 1 ( WE3 $end
$var wire 1 ! clk $end
$var wire 1 p" rst $end
$var parameter 32 q" NUM_REGS $end
$var parameter 32 r" REG_WIDTH $end
$var integer 32 s" i [31:0] $end
$upscope $end
$scope module Sign_Extend $end
$var wire 2 t" ImmSrc [1:0] $end
$var wire 32 u" In [31:0] $end
$var wire 32 v" Imm_Ext [31:0] $end
$upscope $end
$upscope $end
$upscope $end
$enddefinitions $end
$comment Show the parameter values. $end
$dumpall
b100000000 r"
b100000 q"
b100000000 a"
b100000 ]"
b100000000 Y"
b11111 A"
b11110 @"
b11101 ?"
b11100 >"
b11011 ="
b11010 <"
b11001 ;"
b11000 :"
b10111 9"
b10110 8"
b10101 7"
b10100 6"
b10011 5"
b10010 4"
b10001 3"
b10000 2"
b1111 1"
b1110 0"
b1101 /"
b1100 ."
b1011 -"
b1010 ,"
b1001 +"
b1000 *"
b111 )"
b110 ("
b101 '"
b100 &"
b11 %"
b10 $"
b1 #"
b0 ""
b11111 !"
b11110 ~
b11101 }
b11100 |
b11011 {
b11010 z
b11001 y
b11000 x
b10111 w
b10110 v
b10101 u
b10100 t
b10011 s
b10010 r
b10001 q
b10000 p
b1111 o
b1110 n
b1101 m
b1100 l
b1011 k
b1010 j
b1001 i
b1000 h
b111 g
b110 f
b101 e
b100 d
b11 c
b10 b
b1 a
b0 `
b11111 _
b11110 ^
b11101 ]
b11100 \
b11011 [
b11010 Z
b11001 Y
b11000 X
b10111 W
b10110 V
b10101 U
b10100 T
b10011 S
b10010 R
b10001 Q
b10000 P
b1111 O
b1110 N
b1101 M
b1100 L
b1011 K
b1010 J
b1001 I
b1000 H
b111 G
b110 F
b101 E
b100 D
b11 C
b10 B
b1 A
b0 @
b100000000 ?
b100000 >
b100000 =
$end
#0
$dumpvars
b0 v"
b0 u"
b0 t"
bx s"
0p"
b0 o"
b0 n"
b0 m"
b0 l"
b0 k"
b0 j"
b0 i"
bx h"
bx g"
bx f"
b100 e"
bx d"
bx c"
bx b"
b0 `"
b0 _"
b0 ^"
bx \"
bx ["
bx Z"
b0 X"
b0 W"
b0 V"
bx U"
b0 T"
b0 S"
b0 R"
b0 Q"
b0 P"
b0 O"
b0 N"
b0 M"
b0 L"
b0 K"
b0 J"
b0 I"
b0 H"
b0 G"
0F"
b0 E"
b0 D"
b0 C"
b0 B"
b0 <
b0 ;
b0 :
bx00000000 9
b0 8
b0 7
b0 6
05
b0 4
b0 3
02
bx 1
00
bx /
bx .
bx -
b0 ,
b0 +
b0 *
b0 )
0(
b0 '
0&
b0 %
0$
1#
0"
0!
$end
#50
1(
15
b1011111011101111110010101111111010111110111011111100101011111110101111101110111111001010111111101011111011101111110010101111111010111110111011111100101011111110101111101110111111001010111111101011111011101111110010101111111010111110111011111100101011111110 '
b1011111011101111110010101111111010111110111011111100101011111110101111101110111111001010111111101011111011101111110010101111111010111110111011111100101011111110101111101110111111001010111111101011111011101111110010101111111010111110111011111100101011111110 X"
b1011111011101111110010101111111010111110111011111100101011111110101111101110111111001010111111101011111011101111110010101111111010111110111011111100101011111110101111101110111111001010111111101011111011101111110010101111111010111110111011111100101011111110 o"
1&
b1011111011101111110010101111111010111110111011111100101011111110101111101110111111001010111111101011111011101111110010101111111010111110111011111100101011111110101111101110111111001010111111101011111011101111110010101111111010111110111011111100101011111110 )
b1011111011101111110010101111111010111110111011111100101011111110101111101110111111001010111111101011111011101111110010101111111010111110111011111100101011111110101111101110111111001010111111101011111011101111110010101111111010111110111011111100101011111110 S"
b1011111011101111110010101111111010111110111011111100101011111110101111101110111111001010111111101011111011101111110010101111111010111110111011111100101011111110101111101110111111001010111111101011111011101111110010101111111010111110111011111100101011111110 W"
b10 C"
b10 I"
b11 B"
b11 K"
b11 N"
b101 l"
b10001010000011 *
b10001010000011 T"
b10001010000011 u"
b100 /
b100 Z"
b100 b"
b100 1
b100 \"
b100 f"
b0 .
b0 ["
b0 h"
b0 -
b0 U"
b0 c"
b0 d"
b0 g"
1"
1!
#100
0!
#150
bx )
bx S"
bx W"
0#
b1011111011101111110010101111111110111110111011111100101011111111101111101110111111001010111111111011111011101111110010101111111110111110111011111100101011111111101111101110111111001010111111111011111011101111110010101111111110111110111011111100101011111111 6
b1011111011101111110010101111111110111110111011111100101011111111101111101110111111001010111111111011111011101111110010101111111110111110111011111100101011111111101111101110111111001010111111111011111011101111110010101111111110111110111011111100101011111111 8
b1011111011101111110010101111111110111110111011111100101011111111101111101110111111001010111111111011111011101111110010101111111110111110111011111100101011111111101111101110111111001010111111111011111011101111110010101111111110111110111011111100101011111111 Q"
b1011111011101111110010101111111110111110111011111100101011111111101111101110111111001010111111111011111011101111110010101111111110111110111011111100101011111111101111101110111111001010111111111011111011101111110010101111111110111110111011111100101011111111 V"
b1 %
b1 :
b1 _"
b1011111011101111110010101111111110111110111011111100101011111111101111101110111111001010111111111011111011101111110010101111111110111110111011111100101011111111101111101110111111001010111111111011111011101111110010101111111110111110111011111100101011111111 '
b1011111011101111110010101111111110111110111011111100101011111111101111101110111111001010111111111011111011101111110010101111111110111110111011111100101011111111101111101110111111001010111111111011111011101111110010101111111110111110111011111100101011111111 X"
b1011111011101111110010101111111110111110111011111100101011111111101111101110111111001010111111111011111011101111110010101111111110111110111011111100101011111111101111101110111111001010111111111011111011101111110010101111111110111110111011111100101011111111 o"
b1 ^"
b1 3
b1 i"
b1 v"
b10 G"
b10 L"
b10 P"
0&
1$
b0 C"
b0 I"
b10011 B"
b10011 K"
b10011 N"
bx +
bx R"
bx `"
bx n"
b1 k"
b1011111011101111110010101111111010111110111011111100101011111110101111101110111111001010111111101011111011101111110010101111111010111110111011111100101011111110101111101110111111001010111111101011111011101111110010101111111010111110111011111100101011111110 ,
b1011111011101111110010101111111010111110111011111100101011111110101111101110111111001010111111101011111011101111110010101111111010111110111011111100101011111110101111101110111111001010111111101011111011101111110010101111111010111110111011111100101011111110 <
b1011111011101111110010101111111010111110111011111100101011111110101111101110111111001010111111101011111011101111110010101111111010111110111011111100101011111110101111101110111111001010111111101011111011101111110010101111111010111110111011111100101011111110 m"
b101 j"
b100101000001010010011 *
b100101000001010010011 T"
b100101000001010010011 u"
b1000 /
b1000 Z"
b1000 b"
b1000 1
b1000 \"
b1000 f"
b101 .
b101 ["
b101 h"
b100 -
b100 U"
b100 c"
b100 d"
b100 g"
1!
#200
0!
#250
b11000 %
b11000 :
b11000 _"
0(
b11000 ^"
b11000 3
b11000 i"
b11000 v"
15
b0 G"
b0 L"
b0 P"
b11000 '
b11000 X"
b11000 o"
b1 4
b1 E"
b1 O"
b1 t"
12
0$
b11000 6
b11000 8
b11000 Q"
b11000 V"
b10 C"
b10 I"
b100011 B"
b100011 K"
b100011 N"
b11000 l"
b1011111011101111110010101111111110111110111011111100101011111111101111101110111111001010111111111011111011101111110010101111111110111110111011111100101011111111101111101110111111001010111111111011111011101111110010101111111110111110111011111100101011111111 +
b1011111011101111110010101111111110111110111011111100101011111111101111101110111111001010111111111011111011101111110010101111111110111110111011111100101011111111101111101110111111001010111111111011111011101111110010101111111110111110111011111100101011111111 R"
b1011111011101111110010101111111110111110111011111100101011111111101111101110111111001010111111111011111011101111110010101111111110111110111011111100101011111111101111101110111111001010111111111011111011101111110010101111111110111110111011111100101011111111 `"
b1011111011101111110010101111111110111110111011111100101011111111101111101110111111001010111111111011111011101111110010101111111110111110111011111100101011111111101111101110111111001010111111111011111011101111110010101111111110111110111011111100101011111111 n"
b101 k"
b0 j"
b10100000010110000100011 *
b10100000010110000100011 T"
b10100000010110000100011 u"
b1100 /
b1100 Z"
b1100 b"
b1100 1
b1100 \"
b1100 f"
b100000 .
b100000 ["
b100000 h"
b1000 -
b1000 U"
b1000 c"
b1000 d"
b1000 g"
b0 ,
b0 <
b0 m"
1!
#300
0!
#350
1(
b1011111011101111110010101111111110111110111011111100101011111111101111101110111111001010111111111011111011101111110010101111111110111110111011111100101011111111101111101110111111001010111111111011111011101111110010101111111110111110111011111100101011111111 '
b1011111011101111110010101111111110111110111011111100101011111111101111101110111111001010111111111011111011101111110010101111111110111110111011111100101011111111101111101110111111001010111111111011111011101111110010101111111110111110111011111100101011111111 X"
b1011111011101111110010101111111110111110111011111100101011111111101111101110111111001010111111111011111011101111110010101111111110111110111011111100101011111111101111101110111111001010111111111011111011101111110010101111111110111110111011111100101011111111 o"
b0 4
b0 E"
b0 O"
b0 t"
02
1&
b11 B"
b11 K"
b11 N"
b1010 l"
bx +
bx R"
bx `"
bx n"
b11000 k"
b1100000000010010100000011 *
b1100000000010010100000011 T"
b1100000000010010100000011 u"
b1011111011101111110010101111111110111110111011111100101011111111101111101110111111001010111111111011111011101111110010101111111110111110111011111100101011111111101111101110111111001010111111111011111011101111110010101111111110111110111011111100101011111111 )
b1011111011101111110010101111111110111110111011111100101011111111101111101110111111001010111111111011111011101111110010101111111110111110111011111100101011111111101111101110111111001010111111111011111011101111110010101111111110111110111011111100101011111111 S"
b1011111011101111110010101111111110111110111011111100101011111111101111101110111111001010111111111011111011101111110010101111111110111110111011111100101011111111101111101110111111001010111111111011111011101111110010101111111110111110111011111100101011111111 W"
b10000 /
b10000 Z"
b10000 b"
b10000 1
b10000 \"
b10000 f"
b100100 .
b100100 ["
b100100 h"
b1100 -
b1100 U"
b1100 c"
b1100 d"
b1100 g"
1!
#400
0!
#450
bx )
bx S"
bx W"
b1011111011101111110010110000000010111110111011111100101100000000101111101110111111001011000000001011111011101111110010110000000010111110111011111100101100000000101111101110111111001011000000001011111011101111110010110000000010111110111011111100101100000000 6
b1011111011101111110010110000000010111110111011111100101100000000101111101110111111001011000000001011111011101111110010110000000010111110111011111100101100000000101111101110111111001011000000001011111011101111110010110000000010111110111011111100101100000000 8
b1011111011101111110010110000000010111110111011111100101100000000101111101110111111001011000000001011111011101111110010110000000010111110111011111100101100000000101111101110111111001011000000001011111011101111110010110000000010111110111011111100101100000000 Q"
b1011111011101111110010110000000010111110111011111100101100000000101111101110111111001011000000001011111011101111110010110000000010111110111011111100101100000000101111101110111111001011000000001011111011101111110010110000000010111110111011111100101100000000 V"
b1 %
b1 :
b1 _"
b1011111011101111110010110000000010111110111011111100101100000000101111101110111111001011000000001011111011101111110010110000000010111110111011111100101100000000101111101110111111001011000000001011111011101111110010110000000010111110111011111100101100000000 '
b1011111011101111110010110000000010111110111011111100101100000000101111101110111111001011000000001011111011101111110010110000000010111110111011111100101100000000101111101110111111001011000000001011111011101111110010110000000010111110111011111100101100000000 X"
b1011111011101111110010110000000010111110111011111100101100000000101111101110111111001011000000001011111011101111110010110000000010111110111011111100101100000000101111101110111111001011000000001011111011101111110010110000000010111110111011111100101100000000 o"
b1 ^"
b1 3
b1 i"
b1 v"
b10 G"
b10 L"
b10 P"
0&
1$
b0 C"
b0 I"
b10011 B"
b10011 K"
b10011 N"
b1 k"
b1011111011101111110010101111111110111110111011111100101011111111101111101110111111001010111111111011111011101111110010101111111110111110111011111100101011111111101111101110111111001010111111111011111011101111110010101111111110111110111011111100101011111111 ,
b1011111011101111110010101111111110111110111011111100101011111111101111101110111111001010111111111011111011101111110010101111111110111110111011111100101011111111101111101110111111001010111111111011111011101111110010101111111110111110111011111100101011111111 <
b1011111011101111110010101111111110111110111011111100101011111111101111101110111111001010111111111011111011101111110010101111111110111110111011111100101011111111101111101110111111001010111111111011111011101111110010101111111110111110111011111100101011111111 m"
b1010 j"
b101010000010100010011 *
b101010000010100010011 T"
b101010000010100010011 u"
b10100 /
b10100 Z"
b10100 b"
b10100 1
b10100 \"
b10100 f"
b10001 .
b10001 ["
b10001 h"
b10000 -
b10000 U"
b10000 c"
b10000 d"
b10000 g"
1!
#500
0!
#550
x0
x#
bx 7
bx ;
bx H"
bx M"
bx %
bx :
bx _"
bx 9
x(
b0xxxxxxxxxxxxxxxxxxxxxxxxxxxxxxxx ^"
bx 3
bx i"
bx v"
x5
bx G"
bx L"
bx P"
bx '
bx X"
bx o"
bx 4
bx E"
bx O"
bx t"
x2
x&
xF"
x$
bx 6
bx 8
bx Q"
bx V"
bx D"
bx J"
bx C"
bx I"
bx B"
bx K"
bx N"
bx l"
bx k"
bx j"
bx *
bx T"
bx u"
bx /
bx Z"
bx b"
b11000 1
b11000 \"
b11000 f"
bx .
bx ["
bx h"
b10100 -
b10100 U"
b10100 c"
b10100 d"
b10100 g"
bx ,
bx <
bx m"
1!
#600
0!
#650
bx 1
bx \"
bx f"
bx -
bx U"
bx c"
bx d"
bx g"
1!
