src/Processing Element.vcd
$date
	Sat May 24 11:46:19 2025
$end
$version
	Icarus Verilog
$end
$timescale
	1s
$end
$scope module Processing_Element_Tb $end
$var reg 1 ! clk $end
$var reg 1 " rst $end
$scope module PE $end
$var wire 1 ! clk $end
$var wire 1 " rst $end
$var wire 1 # alu_rslt $end
$var wire 1 $ Zero $end
$var wire 1 % UseImm $end
$var wire 256 & SrcB [255:0] $end
$var wire 1 ' ResultSrc $end
$var wire 256 ( Result [255:0] $end
$var wire 1 ) RegWrite $end
$var wire 256 * ReadData [255:0] $end
$var wire 32 + RD_Instr [31:0] $end
$var wire 256 , RD2_Top [255:0] $end
$var wire 256 - RD1_Top [255:0] $end
$var wire 32 . PC_Top [31:0] $end
$var wire 32 / PC_Target [31:0] $end
$var wire 32 0 PC_Next [31:0] $end
$var wire 1 1 PCSrc $end
$var wire 32 2 PCPlus4 [31:0] $end
$var wire 1 3 MemWrite $end
$var wire 32 4 Imm_Ext_Top [31:0] $end
$var wire 2 5 ImmSrc [1:0] $end
$var wire 1 6 ALUSrc $end
$var wire 256 7 ALUResult [255:0] $end
$var wire 3 8 ALUControl_Top [2:0] $end
$scope module ALU $end
$var wire 1 $ Zero $end
$var wire 1 % UseImm $end
$var wire 256 9 Result [255:0] $end
$var wire 8 : Cout [7:0] $end
$var wire 256 ; B [255:0] $end
$var wire 3 < ALUControl [2:0] $end
$var wire 256 = A [255:0] $end
$var parameter 32 > ELEM_WIDTH $end
$var parameter 32 ? NUM_ELEM $end
$var parameter 32 @ REG_WIDTH $end
$scope begin ALU_Operations[0] $end
$var parameter 2 A i $end
$upscope $end
$scope begin ALU_Operations[1] $end
$var parameter 2 B i $end
$upscope $end
$scope begin ALU_Operations[2] $end
$var parameter 3 C i $end
$upscope $end
$scope begin ALU_Operations[3] $end
$var parameter 3 D i $end
$upscope $end
$scope begin ALU_Operations[4] $end
$var parameter 4 E i $end
$upscope $end
$scope begin ALU_Operations[5] $end
$var parameter 4 F i $end
$upscope $end
$scope begin ALU_Operations[6] $end
$var parameter 4 G i $end
$upscope $end
$scope begin ALU_Operations[7] $end
$var parameter 4 H i $end
$upscope $end
$scope begin MergeResult[0] $end
$var parameter 2 I i $end
$upscope $end
$scope begin MergeResult[1] $end
$var parameter 2 J i $end
$upscope $end
$scope begin MergeResult[2] $end
$var parameter 3 K i $end
$upscope $end
$scope begin MergeResult[3] $end
$var parameter 3 L i $end
$upscope $end
$scope begin MergeResult[4] $end
$var parameter 4 M i $end
$upscope $end
$scope begin MergeResult[5] $end
$var parameter 4 N i $end
$upscope $end
$scope begin MergeResult[6] $end
$var parameter 4 O i $end
$upscope $end
$scope begin MergeResult[7] $end
$var parameter 4 P i $end
$upscope $end
$scope begin Split[0] $end
$var parameter 2 Q i $end
$upscope $end
$scope begin Split[1] $end
$var parameter 2 R i $end
$upscope $end
$scope begin Split[2] $end
$var parameter 3 S i $end
$upscope $end
$scope begin Split[3] $end
$var parameter 3 T i $end
$upscope $end
$scope begin Split[4] $end
$var parameter 4 U i $end
$upscope $end
$scope begin Split[5] $end
$var parameter 4 V i $end
$upscope $end
$scope begin Split[6] $end
$var parameter 4 W i $end
$upscope $end
$scope begin Split[7] $end
$var parameter 4 X i $end
$upscope $end
$upscope $end
$scope module Control_Unit $end
$var wire 7 Y Op [6:0] $end
$var wire 1 $ Zero $end
$var wire 3 Z funct3 [2:0] $end
$var wire 7 [ funct7 [6:0] $end
$var wire 1 % UseImm $end
$var wire 1 ' ResultSrc $end
$var wire 1 ) RegWrite $end
$var wire 1 1 PCSrc $end
$var wire 1 3 MemWrite $end
$var wire 2 \ ImmSrc [1:0] $end
$var wire 1 ] Branch $end
$var wire 1 6 ALUSrc $end
$var wire 2 ^ ALUOp [1:0] $end
$var wire 3 _ ALUControl [2:0] $end
$scope module ALU_Decoder $end
$var wire 3 ` funct3 [2:0] $end
$var wire 7 a funct7 [6:0] $end
$var wire 7 b op [6:0] $end
$var wire 2 c ALUOp [1:0] $end
$var wire 3 d ALUControl [2:0] $end
$upscope $end
$scope module Main_Decoder $end
$var wire 7 e Op [6:0] $end
$var wire 1 % UseImm $end
$var wire 1 ' ResultSrc $end
$var wire 1 ) RegWrite $end
$var wire 1 3 MemWrite $end
$var wire 2 f ImmSrc [1:0] $end
$var wire 1 ] Branch $end
$var wire 1 6 ALUSrc $end
$var wire 2 g ALUOp [1:0] $end
$upscope $end
$upscope $end
$scope module Data_Memory $end
$var wire 256 h A [255:0] $end
$var wire 1 3 WE $end
$var wire 1 ! clk $end
$var wire 1 " rst $end
$var wire 256 i WD [255:0] $end
$var wire 256 j RD [255:0] $end
$upscope $end
$scope module Instruction_Memory $end
$var wire 1 " rst $end
$var wire 32 k RD [31:0] $end
$var wire 32 l A [31:0] $end
$upscope $end
$scope module Mux_DataMemory_to_Register $end
$var wire 256 m a [255:0] $end
$var wire 256 n b [255:0] $end
$var wire 1 ' s $end
$var wire 256 o c [255:0] $end
$var parameter 32 p LEN_DATA $end
$upscope $end
$scope module Mux_PC $end
$var wire 1 1 s $end
$var wire 32 q c [31:0] $end
$var wire 32 r b [31:0] $end
$var wire 32 s a [31:0] $end
$var parameter 32 t LEN_DATA $end
$upscope $end
$scope module Mux_Register_to_ALU $end
$var wire 256 u b [255:0] $end
$var wire 1 6 s $end
$var wire 256 v c [255:0] $end
$var wire 256 w a [255:0] $end
$var parameter 32 x LEN_DATA $end
$upscope $end
$scope module PC $end
$var wire 32 y PC_Next [31:0] $end
$var wire 1 ! clk $end
$var wire 1 " rst $end
$var reg 32 z PC [31:0] $end
$upscope $end
$scope module PC_Adder $end
$var wire 32 { a [31:0] $end
$var wire 32 | b [31:0] $end
$var wire 32 } c [31:0] $end
$upscope $end
$scope module PC_Branch $end
$var wire 32 ~ a [31:0] $end
$var wire 32 !" c [31:0] $end
$var wire 32 "" b [31:0] $end
$upscope $end
$scope module Register_File $end
$var wire 5 #" A1 [4:0] $end
$var wire 5 $" A2 [4:0] $end
$var wire 5 %" A3 [4:0] $end
$var wire 256 &" RD1 [255:0] $end
$var wire 256 '" RD2 [255:0] $end
$var wire 256 (" WD3 [255:0] $end
$var wire 1 ) WE3 $end
$var wire 1 ! clk $end
$var wire 1 )" rst $end
$var parameter 32 *" NUM_REGS $end
$var parameter 32 +" REG_WIDTH $end
$var integer 32 ," i [31:0] $end
$upscope $end
$scope module Sign_Extend $end
$var wire 2 -" ImmSrc [1:0] $end
$var wire 32 ." In [31:0] $end
$var wire 32 /" Imm_Ext [31:0] $end
$upscope $end
$upscope $end
$upscope $end
$enddefinitions $end
$comment Show the parameter values. $end
$dumpall
b100000000 +"
b100000 *"
b100000000 x
b100000 t
b100000000 p
b111 X
b110 W
b101 V
b100 U
b11 T
b10 S
b1 R
b0 Q
b111 P
b110 O
b101 N
b100 M
b11 L
b10 K
b1 J
b0 I
b111 H
b110 G
b101 F
b100 E
b11 D
b10 C
b1 B
b0 A
b100000000 @
b1000 ?
b100000 >
$end
#0
$dumpvars
b0 /"
b0 ."
b0 -"
bx ,"
0)"
b0 ("
b0 '"
b0 &"
b0 %"
b0 $"
b0 #"
b0 ""
bx !"
bx ~
bx }
b100 |
bx {
bx z
bx y
b0 w
b0 v
b0 u
bx s
bx r
bx q
b0 o
b0 n
b0 m
bx l
b0 k
b0 j
b0 i
b0 h
b0 g
b0 f
b0 e
b0 d
b0 c
b0 b
b0 a
b0 `
b0 _
b0 ^
0]
b0 \
b0 [
b0 Z
b0 Y
b0 =
b0 <
b0 ;
b0 :
b0 9
b0 8
b0 7
06
b0 5
b0 4
03
bx 2
01
bx 0
bx /
bx .
b0 -
b0 ,
b0 +
b0 *
0)
b0 (
0'
b0 &
0%
1$
0#
0"
0!
$end
#50
0$
b1100100 7
b1100100 9
b1100100 h
b1100100 m
b0 :
0#
1)
16
b100100000000000000000000000000001010000000000000000000000000000010110000000000000000000000000000110000000000000000000000000000001101000000000000000000000000000011100000000000000000000000000000111100000000000000000000000000010000 (
b100100000000000000000000000000001010000000000000000000000000000010110000000000000000000000000000110000000000000000000000000000001101000000000000000000000000000011100000000000000000000000000000111100000000000000000000000000010000 o
b100100000000000000000000000000001010000000000000000000000000000010110000000000000000000000000000110000000000000000000000000000001101000000000000000000000000000011100000000000000000000000000000111100000000000000000000000000010000 ("
b1100100 u
b1100100 4
b1100100 ""
b1100100 /"
1'
b1100100 &
b1100100 ;
b1100100 v
b11 [
b11 a
b10 Z
b10 `
b11 Y
b11 b
b11 e
b1 %"
bx ,
bx i
bx w
bx '"
b100 $"
b100100000000000000000000000000001010000000000000000000000000000010110000000000000000000000000000110000000000000000000000000000001101000000000000000000000000000011100000000000000000000000000000111100000000000000000000000000010000 *
b100100000000000000000000000000001010000000000000000000000000000010110000000000000000000000000000110000000000000000000000000000001101000000000000000000000000000011100000000000000000000000000000111100000000000000000000000000010000 j
b100100000000000000000000000000001010000000000000000000000000000010110000000000000000000000000000110000000000000000000000000000001101000000000000000000000000000011100000000000000000000000000000111100000000000000000000000000010000 n
b110010000000010000010000011 +
b110010000000010000010000011 k
b110010000000010000010000011 ."
b100 0
b100 q
b100 y
b100 2
b100 s
b100 }
b1100100 /
b1100100 r
b1100100 !"
b0 .
b0 l
b0 z
b0 {
b0 ~
1"
1!
#100
0!
#150
b100000000000000000000000000000010000000000000000000000000000000110000000000000000000000000000010000000000000000000000000000000101000000000000000000000000000001100000000000000000000000000000011100000000000000000000000000001000 (
b100000000000000000000000000000010000000000000000000000000000000110000000000000000000000000000010000000000000000000000000000000101000000000000000000000000000001100000000000000000000000000000011100000000000000000000000000001000 o
b100000000000000000000000000000010000000000000000000000000000000110000000000000000000000000000010000000000000000000000000000000101000000000000000000000000000001100000000000000000000000000000011100000000000000000000000000001000 ("
b100000000000000000000000000000010000000000000000000000000000000110000000000000000000000000000010000000000000000000000000000000101000000000000000000000000000001100000000000000000000000000000011100000000000000000000000000001000 *
b100000000000000000000000000000010000000000000000000000000000000110000000000000000000000000000010000000000000000000000000000000101000000000000000000000000000001100000000000000000000000000000011100000000000000000000000000001000 j
b100000000000000000000000000000010000000000000000000000000000000110000000000000000000000000000010000000000000000000000000000000101000000000000000000000000000001100000000000000000000000000000011100000000000000000000000000001000 n
b1101000 7
b1101000 9
b1101000 h
b1101000 m
b1101000 &
b1101000 ;
b1101000 v
b1101000 u
b1101000 4
b1101000 ""
b1101000 /"
b10 %"
b1000 $"
b110100000000010000100000011 +
b110100000000010000100000011 k
b110100000000010000100000011 ."
b1000 0
b1000 q
b1000 y
b1000 2
b1000 s
b1000 }
b1101100 /
b1101100 r
b1101100 !"
b100 .
b100 l
b100 z
b100 {
b100 ~
1!
#200
0!
#250
b1 8
b1 <
b1 _
b1 d
bx *
bx j
bx n
b100000000000000000000000000000001000000000000000000000000000000010000000000000000000000000000000100000000000000000000000000000001000000000000000000000000000000010000000000000000000000000000000100000000000000000000000000000001000 7
b100000000000000000000000000000001000000000000000000000000000000010000000000000000000000000000000100000000000000000000000000000001000000000000000000000000000000010000000000000000000000000000000100000000000000000000000000000001000 9
b100000000000000000000000000000001000000000000000000000000000000010000000000000000000000000000000100000000000000000000000000000001000000000000000000000000000000010000000000000000000000000000000100000000000000000000000000000001000 h
b100000000000000000000000000000001000000000000000000000000000000010000000000000000000000000000000100000000000000000000000000000001000000000000000000000000000000010000000000000000000000000000000100000000000000000000000000000001000 m
b100000000000000000000000000000010000000000000000000000000000000110000000000000000000000000000010000000000000000000000000000000101000000000000000000000000000001100000000000000000000000000000011100000000000000000000000000001000 &
b100000000000000000000000000000010000000000000000000000000000000110000000000000000000000000000010000000000000000000000000000000101000000000000000000000000000001100000000000000000000000000000011100000000000000000000000000001000 ;
b100000000000000000000000000000010000000000000000000000000000000110000000000000000000000000000010000000000000000000000000000000101000000000000000000000000000001100000000000000000000000000000011100000000000000000000000000001000 v
06
b100000000000000000000000000000001000000000000000000000000000000010000000000000000000000000000000100000000000000000000000000000001000000000000000000000000000000010000000000000000000000000000000100000000000000000000000000000001000 (
b100000000000000000000000000000001000000000000000000000000000000010000000000000000000000000000000100000000000000000000000000000001000000000000000000000000000000010000000000000000000000000000000100000000000000000000000000000001000 o
b100000000000000000000000000000001000000000000000000000000000000010000000000000000000000000000000100000000000000000000000000000001000000000000000000000000000000010000000000000000000000000000000100000000000000000000000000000001000 ("
b10000000010 u
b10000000010 4
b10000000010 ""
b10000000010 /"
b10 ^
b10 c
b10 g
0'
b100000 [
b100000 a
b0 Z
b0 `
b110011 Y
b110011 b
b110011 e
b11 %"
b100000000000000000000000000000010000000000000000000000000000000110000000000000000000000000000010000000000000000000000000000000101000000000000000000000000000001100000000000000000000000000000011100000000000000000000000000001000 ,
b100000000000000000000000000000010000000000000000000000000000000110000000000000000000000000000010000000000000000000000000000000101000000000000000000000000000001100000000000000000000000000000011100000000000000000000000000001000 i
b100000000000000000000000000000010000000000000000000000000000000110000000000000000000000000000010000000000000000000000000000000101000000000000000000000000000001100000000000000000000000000000011100000000000000000000000000001000 w
b100000000000000000000000000000010000000000000000000000000000000110000000000000000000000000000010000000000000000000000000000000101000000000000000000000000000001100000000000000000000000000000011100000000000000000000000000001000 '"
b10 $"
b100100000000000000000000000000001010000000000000000000000000000010110000000000000000000000000000110000000000000000000000000000001101000000000000000000000000000011100000000000000000000000000000111100000000000000000000000000010000 -
b100100000000000000000000000000001010000000000000000000000000000010110000000000000000000000000000110000000000000000000000000000001101000000000000000000000000000011100000000000000000000000000000111100000000000000000000000000010000 =
b100100000000000000000000000000001010000000000000000000000000000010110000000000000000000000000000110000000000000000000000000000001101000000000000000000000000000011100000000000000000000000000000111100000000000000000000000000010000 &"
b1 #"
b1000000001000001000000110110011 +
b1000000001000001000000110110011 k
b1000000001000001000000110110011 ."
b1100 0
b1100 q
b1100 y
b1100 2
b1100 s
b1100 }
b10000001010 /
b10000001010 r
b10000001010 !"
b1000 .
b1000 l
b1000 z
b1000 {
b1000 ~
1!
#300
0!
#350
b101000000000000000000000000000001100000000000000000000000000000011100000000000000000000000000001000000000000000000000000000000010010000000000000000000000000000101000000000000000000000000000001011000000000000000000000000000011000 (
b101000000000000000000000000000001100000000000000000000000000000011100000000000000000000000000001000000000000000000000000000000010010000000000000000000000000000101000000000000000000000000000001011000000000000000000000000000011000 o
b101000000000000000000000000000001100000000000000000000000000000011100000000000000000000000000001000000000000000000000000000000010010000000000000000000000000000101000000000000000000000000000001011000000000000000000000000000011000 ("
b101000000000000000000000000000001100000000000000000000000000000011100000000000000000000000000001000000000000000000000000000000010010000000000000000000000000000101000000000000000000000000000001011000000000000000000000000000011000 7
b101000000000000000000000000000001100000000000000000000000000000011100000000000000000000000000001000000000000000000000000000000010010000000000000000000000000000101000000000000000000000000000001011000000000000000000000000000011000 9
b101000000000000000000000000000001100000000000000000000000000000011100000000000000000000000000001000000000000000000000000000000010010000000000000000000000000000101000000000000000000000000000001011000000000000000000000000000011000 h
b101000000000000000000000000000001100000000000000000000000000000011100000000000000000000000000001000000000000000000000000000000010010000000000000000000000000000101000000000000000000000000000001011000000000000000000000000000011000 m
b0 8
b0 <
b0 _
b0 d
b10 u
b10 4
b10 ""
b10 /"
b0 [
b0 a
b100 %"
b1000001000001000110011 +
b1000001000001000110011 k
b1000001000001000110011 ."
b10000 0
b10000 q
b10000 y
b10000 2
b10000 s
b10000 }
b1110 /
b1110 r
b1110 !"
b1100 .
b1100 l
b1100 z
b1100 {
b1100 ~
1!
#400
0!
#450
b0 8
b0 <
b0 _
b0 d
0#
0$
b1001100000000000000000000000000010100000000000000000000000000000101010000000000000000000000000001011000000000000000000000000000010111000000000000000000000000000110000000000000000000000000000001100100000000000000000000000000011010 (
b1001100000000000000000000000000010100000000000000000000000000000101010000000000000000000000000001011000000000000000000000000000010111000000000000000000000000000110000000000000000000000000000001100100000000000000000000000000011010 o
b1001100000000000000000000000000010100000000000000000000000000000101010000000000000000000000000001011000000000000000000000000000010111000000000000000000000000000110000000000000000000000000000001100100000000000000000000000000011010 ("
b1001100000000000000000000000000010100000000000000000000000000000101010000000000000000000000000001011000000000000000000000000000010111000000000000000000000000000110000000000000000000000000000001100100000000000000000000000000011010 7
b1001100000000000000000000000000010100000000000000000000000000000101010000000000000000000000000001011000000000000000000000000000010111000000000000000000000000000110000000000000000000000000000001100100000000000000000000000000011010 9
b1001100000000000000000000000000010100000000000000000000000000000101010000000000000000000000000001011000000000000000000000000000010111000000000000000000000000000110000000000000000000000000000001100100000000000000000000000000011010 h
b1001100000000000000000000000000010100000000000000000000000000000101010000000000000000000000000001011000000000000000000000000000010111000000000000000000000000000110000000000000000000000000000001100100000000000000000000000000011010 m
b0 :
b1010 u
b1010 4
b1010 ""
b1010 /"
16
1%
b1010 &
b1010 ;
b1010 v
b10011 Y
b10011 b
b10011 e
b101 %"
bx ,
bx i
bx w
bx '"
b1010 $"
b101000001000001010010011 +
b101000001000001010010011 k
b101000001000001010010011 ."
b10100 0
b10100 q
b10100 y
b10100 2
b10100 s
b10100 }
b11010 /
b11010 r
b11010 !"
b10000 .
b10000 l
b10000 z
b10000 {
b10000 ~
1!
#500
0!
#550
0$
b11 8
b11 <
b11 _
b11 d
b100100000000000000000000000000010100000000000000000000000000001000010000000000000000000000000011000000000000000000000000000001000001000000000000000000000000010101000000000000000000000000000110100100000000000000000000000010000000 (
b100100000000000000000000000000010100000000000000000000000000001000010000000000000000000000000011000000000000000000000000000001000001000000000000000000000000010101000000000000000000000000000110100100000000000000000000000010000000 o
b100100000000000000000000000000010100000000000000000000000000001000010000000000000000000000000011000000000000000000000000000001000001000000000000000000000000010101000000000000000000000000000110100100000000000000000000000010000000 ("
b100100000000000000000000000000010100000000000000000000000000001000010000000000000000000000000011000000000000000000000000000001000001000000000000000000000000010101000000000000000000000000000110100100000000000000000000000010000000 7
b100100000000000000000000000000010100000000000000000000000000001000010000000000000000000000000011000000000000000000000000000001000001000000000000000000000000010101000000000000000000000000000110100100000000000000000000000010000000 9
b100100000000000000000000000000010100000000000000000000000000001000010000000000000000000000000011000000000000000000000000000001000001000000000000000000000000010101000000000000000000000000000110100100000000000000000000000010000000 h
b100100000000000000000000000000010100000000000000000000000000001000010000000000000000000000000011000000000000000000000000000001000001000000000000000000000000010101000000000000000000000000000110100100000000000000000000000010000000 m
b100000000000000000000000000000010000000000000000000000000000000110000000000000000000000000000010000000000000000000000000000000101000000000000000000000000000001100000000000000000000000000000011100000000000000000000000000001000 &
b100000000000000000000000000000010000000000000000000000000000000110000000000000000000000000000010000000000000000000000000000000101000000000000000000000000000001100000000000000000000000000000011100000000000000000000000000001000 ;
b100000000000000000000000000000010000000000000000000000000000000110000000000000000000000000000010000000000000000000000000000000101000000000000000000000000000001100000000000000000000000000000011100000000000000000000000000001000 v
b10 u
b10 4
b10 ""
b10 /"
1)
06
0%
b110 Z
b110 `
b110011 Y
b110011 b
b110011 e
b110 %"
b100000000000000000000000000000010000000000000000000000000000000110000000000000000000000000000010000000000000000000000000000000101000000000000000000000000000001100000000000000000000000000000011100000000000000000000000000001000 ,
b100000000000000000000000000000010000000000000000000000000000000110000000000000000000000000000010000000000000000000000000000000101000000000000000000000000000001100000000000000000000000000000011100000000000000000000000000001000 i
b100000000000000000000000000000010000000000000000000000000000000110000000000000000000000000000010000000000000000000000000000000101000000000000000000000000000001100000000000000000000000000000011100000000000000000000000000001000 w
b100000000000000000000000000000010000000000000000000000000000000110000000000000000000000000000010000000000000000000000000000000101000000000000000000000000000001100000000000000000000000000000011100000000000000000000000000001000 '"
b10 $"
b1000001110001100110011 +
b1000001110001100110011 k
b1000001110001100110011 ."
b11000 0
b11000 q
b11000 y
b11000 2
b11000 s
b11000 }
b10110 /
b10110 r
b10110 !"
b10100 .
b10100 l
b10100 z
b10100 {
b10100 ~
1!
#600
0!
#650
b1101100000000000000000000000000011110000000000000000000000000001000010000000000000000000000000010010000000000000000000000000000100111000000000000000000000000001010100000000000000000000000000010110100000000000000000000000000110000 (
b1101100000000000000000000000000011110000000000000000000000000001000010000000000000000000000000010010000000000000000000000000000100111000000000000000000000000001010100000000000000000000000000010110100000000000000000000000000110000 o
b1101100000000000000000000000000011110000000000000000000000000001000010000000000000000000000000010010000000000000000000000000000100111000000000000000000000000001010100000000000000000000000000010110100000000000000000000000000110000 ("
b1101100000000000000000000000000011110000000000000000000000000001000010000000000000000000000000010010000000000000000000000000000100111000000000000000000000000001010100000000000000000000000000010110100000000000000000000000000110000 7
b1101100000000000000000000000000011110000000000000000000000000001000010000000000000000000000000010010000000000000000000000000000100111000000000000000000000000001010100000000000000000000000000010110100000000000000000000000000110000 9
b1101100000000000000000000000000011110000000000000000000000000001000010000000000000000000000000010010000000000000000000000000000100111000000000000000000000000001010100000000000000000000000000010110100000000000000000000000000110000 h
b1101100000000000000000000000000011110000000000000000000000000001000010000000000000000000000000010010000000000000000000000000000100111000000000000000000000000001010100000000000000000000000000010110100000000000000000000000000110000 m
b11 u
b11 4
b11 ""
b11 /"
16
1%
b11 &
b11 ;
b11 v
b10011 Y
b10011 b
b10011 e
b111 %"
b100000000000000000000000000000001000000000000000000000000000000010000000000000000000000000000000100000000000000000000000000000001000000000000000000000000000000010000000000000000000000000000000100000000000000000000000000000001000 ,
b100000000000000000000000000000001000000000000000000000000000000010000000000000000000000000000000100000000000000000000000000000001000000000000000000000000000000010000000000000000000000000000000100000000000000000000000000000001000 i
b100000000000000000000000000000001000000000000000000000000000000010000000000000000000000000000000100000000000000000000000000000001000000000000000000000000000000010000000000000000000000000000000100000000000000000000000000000001000 w
b100000000000000000000000000000001000000000000000000000000000000010000000000000000000000000000000100000000000000000000000000000001000000000000000000000000000000010000000000000000000000000000000100000000000000000000000000000001000 '"
b11 $"
b1100001110001110010011 +
b1100001110001110010011 k
b1100001110001110010011 ."
b11100 0
b11100 q
b11100 y
b11100 2
b11100 s
b11100 }
b11011 /
b11011 r
b11011 !"
b11000 .
b11000 l
b11000 z
b11000 {
b11000 ~
1!
#700
0!
#750
b100000000000000000000000000000010000000000000000000000000000000110000000000000000000000000000010000000000000000000000000000000101000000000000000000000000000001100000000000000000000000000000011100000000000000000000000000001000 (
b100000000000000000000000000000010000000000000000000000000000000110000000000000000000000000000010000000000000000000000000000000101000000000000000000000000000001100000000000000000000000000000011100000000000000000000000000001000 o
b100000000000000000000000000000010000000000000000000000000000000110000000000000000000000000000010000000000000000000000000000000101000000000000000000000000000001100000000000000000000000000000011100000000000000000000000000001000 ("
b10 8
b10 <
b10 _
b10 d
b100000000000000000000000000000010000000000000000000000000000000110000000000000000000000000000010000000000000000000000000000000101000000000000000000000000000001100000000000000000000000000000011100000000000000000000000000001000 7
b100000000000000000000000000000010000000000000000000000000000000110000000000000000000000000000010000000000000000000000000000000101000000000000000000000000000001100000000000000000000000000000011100000000000000000000000000001000 9
b100000000000000000000000000000010000000000000000000000000000000110000000000000000000000000000010000000000000000000000000000000101000000000000000000000000000001100000000000000000000000000000011100000000000000000000000000001000 h
b100000000000000000000000000000010000000000000000000000000000000110000000000000000000000000000010000000000000000000000000000000101000000000000000000000000000001100000000000000000000000000000011100000000000000000000000000001000 m
b100000000000000000000000000000010000000000000000000000000000000110000000000000000000000000000010000000000000000000000000000000101000000000000000000000000000001100000000000000000000000000000011100000000000000000000000000001000 &
b100000000000000000000000000000010000000000000000000000000000000110000000000000000000000000000010000000000000000000000000000000101000000000000000000000000000001100000000000000000000000000000011100000000000000000000000000001000 ;
b100000000000000000000000000000010000000000000000000000000000000110000000000000000000000000000010000000000000000000000000000000101000000000000000000000000000001100000000000000000000000000000011100000000000000000000000000001000 v
b10 u
b10 4
b10 ""
b10 /"
1)
06
0%
b111 Z
b111 `
b110011 Y
b110011 b
b110011 e
b1000 %"
b100000000000000000000000000000010000000000000000000000000000000110000000000000000000000000000010000000000000000000000000000000101000000000000000000000000000001100000000000000000000000000000011100000000000000000000000000001000 ,
b100000000000000000000000000000010000000000000000000000000000000110000000000000000000000000000010000000000000000000000000000000101000000000000000000000000000001100000000000000000000000000000011100000000000000000000000000001000 i
b100000000000000000000000000000010000000000000000000000000000000110000000000000000000000000000010000000000000000000000000000000101000000000000000000000000000001100000000000000000000000000000011100000000000000000000000000001000 w
b100000000000000000000000000000010000000000000000000000000000000110000000000000000000000000000010000000000000000000000000000000101000000000000000000000000000001100000000000000000000000000000011100000000000000000000000000001000 '"
b10 $"
b1000001111010000110011 +
b1000001111010000110011 k
b1000001111010000110011 ."
b100000 0
b100000 q
b100000 y
b100000 2
b100000 s
b100000 }
b11110 /
b11110 r
b11110 !"
b11100 .
b11100 l
b11100 z
b11100 {
b11100 ~
1!
#800
0!
#850
0#
0$
b1000000000000000000000000000000010000000000000000000000000000000100000000000000000000000000000001000000000000000000000000000000010000000000000000000000000000000100000000000000000000000000000001000000000000000000000000000000010000 (
b1000000000000000000000000000000010000000000000000000000000000000100000000000000000000000000000001000000000000000000000000000000010000000000000000000000000000000100000000000000000000000000000001000000000000000000000000000000010000 o
b1000000000000000000000000000000010000000000000000000000000000000100000000000000000000000000000001000000000000000000000000000000010000000000000000000000000000000100000000000000000000000000000001000000000000000000000000000000010000 ("
b1000000000000000000000000000000010000000000000000000000000000000100000000000000000000000000000001000000000000000000000000000000010000000000000000000000000000000100000000000000000000000000000001000000000000000000000000000000010000 7
b1000000000000000000000000000000010000000000000000000000000000000100000000000000000000000000000001000000000000000000000000000000010000000000000000000000000000000100000000000000000000000000000001000000000000000000000000000000010000 9
b1000000000000000000000000000000010000000000000000000000000000000100000000000000000000000000000001000000000000000000000000000000010000000000000000000000000000000100000000000000000000000000000001000000000000000000000000000000010000 h
b1000000000000000000000000000000010000000000000000000000000000000100000000000000000000000000000001000000000000000000000000000000010000000000000000000000000000000100000000000000000000000000000001000000000000000000000000000000010000 m
b0 :
b10000 u
b10000 4
b10000 ""
b10000 /"
16
1%
b10000 &
b10000 ;
b10000 v
b10011 Y
b10011 b
b10011 e
b1001 %"
bx ,
bx i
bx w
bx '"
b10000 $"
b1000000001111010010010011 +
b1000000001111010010010011 k
b1000000001111010010010011 ."
b100100 0
b100100 q
b100100 y
b100100 2
b100100 s
b100100 }
b110000 /
b110000 r
b110000 !"
b100000 .
b100000 l
b100000 z
b100000 {
b100000 ~
1!
#900
0!
#950
b1101100 (
b1101100 o
b1101100 ("
b1101100 7
b1101100 9
b1101100 h
b1101100 m
b1101100 &
b1101100 ;
b1101100 v
b0 8
b0 <
b0 _
b0 d
0)
b1101100 u
b1101100 4
b1101100 ""
b1101100 /"
16
b0 ^
b0 c
b0 g
b1 5
b1 \
b1 f
b1 -"
13
0%
b11 [
b11 a
b10 Z
b10 `
b100011 Y
b100011 b
b100011 e
b1100 %"
b100000000000000000000000000000001000000000000000000000000000000010000000000000000000000000000000100000000000000000000000000000001000000000000000000000000000000010000000000000000000000000000000100000000000000000000000000000001000 ,
b100000000000000000000000000000001000000000000000000000000000000010000000000000000000000000000000100000000000000000000000000000001000000000000000000000000000000010000000000000000000000000000000100000000000000000000000000000001000 i
b100000000000000000000000000000001000000000000000000000000000000010000000000000000000000000000000100000000000000000000000000000001000000000000000000000000000000010000000000000000000000000000000100000000000000000000000000000001000 w
b100000000000000000000000000000001000000000000000000000000000000010000000000000000000000000000000100000000000000000000000000000001000000000000000000000000000000010000000000000000000000000000000100000000000000000000000000000001000 '"
b11 $"
b0 -
b0 =
b0 &"
b0 #"
b110001100000010011000100011 +
b110001100000010011000100011 k
b110001100000010011000100011 ."
b101000 0
b101000 q
b101000 y
b101000 2
b101000 s
b101000 }
b10010000 /
b10010000 r
b10010000 !"
b100100 .
b100100 l
b100100 z
b100100 {
b100100 ~
1!
#1000
0!
#1050
b1110000 (
b1110000 o
b1110000 ("
b1110000 7
b1110000 9
b1110000 h
b1110000 m
b1110000 &
b1110000 ;
b1110000 v
b1110000 u
b1110000 4
b1110000 ""
b1110000 /"
b10000 %"
b101000000000000000000000000000001100000000000000000000000000000011100000000000000000000000000001000000000000000000000000000000010010000000000000000000000000000101000000000000000000000000000001011000000000000000000000000000011000 ,
b101000000000000000000000000000001100000000000000000000000000000011100000000000000000000000000001000000000000000000000000000000010010000000000000000000000000000101000000000000000000000000000001011000000000000000000000000000011000 i
b101000000000000000000000000000001100000000000000000000000000000011100000000000000000000000000001000000000000000000000000000000010010000000000000000000000000000101000000000000000000000000000001011000000000000000000000000000011000 w
b101000000000000000000000000000001100000000000000000000000000000011100000000000000000000000000001000000000000000000000000000000010010000000000000000000000000000101000000000000000000000000000001011000000000000000000000000000011000 '"
b100 $"
b110010000000010100000100011 +
b110010000000010100000100011 k
b110010000000010100000100011 ."
bx *
bx j
bx n
b101100 0
b101100 q
b101100 y
b101100 2
b101100 s
b101100 }
b10011000 /
b10011000 r
b10011000 !"
b101000 .
b101000 l
b101000 z
b101000 {
b101000 ~
1!
#1100
0!
